{
  "shell_port": 40109,
  "iopub_port": 33067,
  "stdin_port": 48183,
  "control_port": 57565,
  "hb_port": 52815,
  "ip": "127.0.0.1",
  "key": "4358178b-49126fba0f3a53a4a1dcae87",
  "transport": "tcp",
  "signature_scheme": "hmac-sha256",
  "kernel_name": ""
}